{
  "videoId":1,
  "result":1,
  "cause": "",
  "videoname": "The animation Tokyo car race",
  "videoURL": "/tf_online/media/cars.mp4",
  "poster": "/tf_online/media/cars.png",
  "videointroduce": "The following PREVIEW has been approved for APPROPRIATE AUDIENCES...",
  "currentPage":4,
  "totalCount":15,
  "totalPage":8,
  "pageSize":5,
  "list": [
    {"commentid":1, "userid": 123, "username": "CodeEmpreso", "createtime": "1505892863000", "content": "用心做立绘，用手做角色，用脚做游戏。"},
    {"commentid":2, "userid": 614602, "username": "kaerfhgd", "createtime": "1505892862000", "content": "我们村这2G网就是快，第一没问题"},
    {"commentid":3, "userid": 614603, "username": "瓦特开飞机", "createtime": "1505837700000", "content": "第一次这么前( ﾉД`)"},
    {"commentid":4, "userid": 614604, "username": "最帅的比", "createtime": "1505837700000", "content": "大佬大佬"}
  ]
}